{
  "project_info": {
    "project_number": "452334625345",
    "firebase_url": "https://leonates-54d0f.firebaseio.com",
    "project_id": "leonates-54d0f",
    "storage_bucket": "leonates-54d0f.appspot.com"
  },
  "client": [
    {
      "client_info": {
        "mobilesdk_app_id": "1:452334625345:android:7fc4ab2fdfe118e7",
        "android_client_info": {
          "package_name": "com.leonates"
        }
      },
      "oauth_client": [
        {
          "client_id": "452334625345-t5vvrlospp0dlpur4vu3tiki9o39kaft.apps.googleusercontent.com",
          "client_type": 3
        }
      ],
      "api_key": [
        {
          "current_key": "AIzaSyAe3JhBlaa0_Y9Tlode57h9qgoWwiy7zZE"
        }
      ],
      "services": {
        "analytics_service": {
          "status": 1
        },
        "appinvite_service": {
          "status": 1,
          "other_platform_oauth_client": []
        },
        "ads_service": {
          "status": 2
        }
      }
    }
  ],
  "configuration_version": "1"
}